{
    "datacenter": "stable",
    "data_dir": "/consul/data",
    "ui": true,
    "dns_config": {
      "allow_stale": false
    },
    "log_level": "INFO",
    "node_name": "consul",
    "client_addr": "0.0.0.0",
    "server": true,
    "bootstrap_expect": 1
  }